; G-Code generated by Simplify3D(R) Version 3.1.1
; Aug 5, 2017 at 5:21:30 PM
; Settings Summary
;   processName,Process1
;   applyToModels,PlungerRing
;   profileName,Original Prusa i3 MK2 RC4 (modified)
;   profileVersion,2017-07-29 14:57:00
;   baseProfile,Prusa Mendel (modified)
;   printMaterial,PLA
;   printQuality,NORMAL 0.2mm
;   printExtruders,
;   extruderName,Primary Extruder
;   extruderToolheadNumber,0
;   extruderDiameter,0.4
;   extruderAutoWidth,0
;   extruderWidth,0.45
;   extrusionMultiplier,1
;   extruderUseRetract,1
;   extruderRetractionDistance,0.8
;   extruderExtraRestartDistance,0
;   extruderRetractionZLift,0
;   extruderRetractionSpeed,1800
;   extruderUseCoasting,1
;   extruderCoastingDistance,0.2
;   extruderUseWipe,1
;   extruderWipeDistance,2
;   primaryExtruder,0
;   layerHeight,0.2
;   topSolidLayers,3
;   bottomSolidLayers,3
;   perimeterOutlines,2
;   printPerimetersInsideOut,1
;   startPointOption,2
;   startPointOriginX,0
;   startPointOriginY,0
;   startPointOriginZ,300
;   sequentialIslands,0
;   spiralVaseMode,0
;   firstLayerHeightPercentage,100
;   firstLayerWidthPercentage,95
;   firstLayerUnderspeed,0.6
;   useRaft,0
;   raftExtruder,0
;   raftLayers,3
;   raftOffset,3
;   raftSeparationDistance,0.14
;   raftInfill,85
;   disableRaftBaseLayers,0
;   useSkirt,1
;   skirtExtruder,0
;   skirtLayers,1
;   skirtOutlines,1
;   skirtOffset,2
;   usePrimePillar,0
;   primePillarExtruder,999
;   primePillarWidth,12
;   primePillarLocation,7
;   primePillarSpeedMultiplier,1
;   useOozeShield,0
;   oozeShieldExtruder,999
;   oozeShieldOffset,2
;   oozeShieldOutlines,1
;   oozeShieldSidewallShape,1
;   oozeShieldSidewallAngle,30
;   oozeShieldSpeedMultiplier,1
;   infillExtruder,0
;   internalInfillPattern,Rectilinear
;   externalInfillPattern,Rectilinear
;   infillPercentage,20
;   outlineOverlapPercentage,21
;   infillExtrusionWidthPercentage,100
;   minInfillLength,2
;   infillLayerInterval,1
;   infillAngles,45,-45
;   overlapInfillAngles,0
;   generateSupport,1
;   supportExtruder,0
;   supportInfillPercentage,30
;   supportExtraInflation,1.4
;   denseSupportLayers,0
;   denseSupportInfillPercentage,70
;   supportLayerInterval,1
;   supportHorizontalPartOffset,0.2
;   supportUpperSeparationLayers,1
;   supportLowerSeparationLayers,1
;   supportType,0
;   supportGridSpacing,4
;   maxOverhangAngle,45
;   supportAngles,0
;   temperatureName,Primary Extruder,Heated Bed
;   temperatureNumber,0,1
;   temperatureSetpointCount,2,1
;   temperatureSetpointLayers,1,2,1
;   temperatureSetpointTemperatures,215,200,55
;   temperatureStabilizeAtStartup,1,1
;   temperatureHeatedBed,0,1
;   temperatureRelayBetweenLayers,0,0
;   temperatureRelayBetweenLoops,0,0
;   fanLayers,1,2
;   fanSpeeds,0,100
;   blipFanToFullPower,1
;   adjustSpeedForCooling,0
;   minSpeedLayerTime,15
;   minCoolingSpeedSlowdown,5
;   increaseFanForCooling,0
;   minFanLayerTime,45
;   maxCoolingFanSpeed,100
;   increaseFanForBridging,1
;   bridgingFanSpeed,100
;   use5D,1
;   relativeEdistances,1
;   allowEaxisZeroing,1
;   independentExtruderAxes,0
;   includeM10123,0
;   stickySupport,1
;   applyToolheadOffsets,0
;   gcodeXoffset,0
;   gcodeYoffset,0
;   gcodeZoffset,0
;   overrideMachineDefinition,1
;   machineTypeOverride,0
;   strokeXoverride,250
;   strokeYoverride,210
;   strokeZoverride,200
;   originOffsetXoverride,0
;   originOffsetYoverride,0
;   originOffsetZoverride,0
;   homeXdirOverride,-1
;   homeYdirOverride,-1
;   homeZdirOverride,-1
;   flipXoverride,1
;   flipYoverride,-1
;   flipZoverride,1
;   toolheadOffsets,0,0|0,0|0,0|0,0|0,0|0,0
;   overrideFirmwareConfiguration,0
;   firmwareTypeOverride,RepRap (Marlin/Repetier/Sprinter)
;   GPXconfigOverride,r2
;   baudRateOverride,250000
;   overridePrinterModels,1
;   printerModelsOverride
;   startingGcode,M115 U3.0.7 ; tell the printer latest firmware varsion available,G28 W ; home all without mesh bed level,G80 ; mesh bed leveling,G1 Y-3.0 F1000.0 ; go outside printing area,G1 X60.0 E9.0  F1000.0 ; intro line,G1 X100.0 E12.5  F1000.0 ; intro line
;   layerChangeGcode,
;   retractionGcode,
;   toolChangeGcode,
;   endingGcode,M104 S0 ; turn off temperature,M140 S0 ; turn off heatbed,M107 ; turn off fan,G1 X0 Y200; home X axis,M84 ; disable motors
;   exportFileFormat,gcode
;   celebration,0
;   celebrationSong,Random Song
;   postProcessing,{REPLACE "; outer perimeter\n" "; outer perimeter\nM204 S600\n"},{REPLACE "; inner perimeter\n" "; inner perimeter\nM204 S1200\n"},{REPLACE "; solid layer\n" "; solid layer\nM204 S1500\n"},{REPLACE "; infill\n" "; infill\nM204 S2000\n"}
;   defaultSpeed,2400
;   outlineUnderspeed,0.8
;   solidInfillUnderspeed,0.8
;   supportUnderspeed,0.8
;   rapidXYspeed,4800
;   rapidZspeed,1000
;   minBridgingArea,50
;   bridgingExtraInflation,1
;   bridgingExtrusionMultiplier,1
;   bridgingSpeedMultiplier,1
;   filamentDiameter,1.75
;   filamentPricePerKg,13
;   filamentDensity,1.25
;   useMinPrintHeight,0
;   minPrintHeight,0
;   useMaxPrintHeight,0
;   maxPrintHeight,3
;   useDiaphragm,0
;   diaphragmLayerInterval,20
;   robustSlicing,0
;   mergeAllIntoSolid,0
;   onlyRetractWhenCrossingOutline,0
;   retractBetweenLayers,1
;   useRetractionMinTravel,1
;   retractionMinTravel,3
;   retractWhileWiping,1
;   onlyWipeOutlines,1
;   avoidCrossingOutline,0
;   maxMovementDetourFactor,3
;   toolChangeRetractionDistance,12
;   toolChangeExtraRestartDistance,-0.5
;   toolChangeRetractionSpeed,600
;   allowThinWallGapFill,1
;   thinWallAllowedOverlapPercentage,25
;   horizontalSizeCompensation,0
G90
M83
M106 S0
M140 S55
M190 S55
M104 S215 T0
M109 S215 T0
M115 U3.0.7 ; tell the printer latest firmware varsion available
G28 W ; home all without mesh bed level
G80 ; mesh bed leveling
G1 Y-3.0 F1000.0 ; go outside printing area
G1 X60.0 E9.0  F1000.0 ; intro line
G1 X100.0 E12.5  F1000.0 ; intro line
G1 E-0.8000 F1800
G1 Z0.200 F1000
; layer 1, Z = 0.2
T0
; tool H0.200 W0.428
; skirt
G1 X119.133 Y100.132 F4800
G1 E0.8000 F540
G1 X119.860 Y99.369 E0.0375 F1440
G1 X119.865 Y99.364 E0.0003
G1 X119.971 Y99.268 E0.0051
G1 X119.977 Y99.263 E0.0003
G1 X120.502 Y98.843 E0.0239
G1 X120.506 Y98.840 E0.0002
G1 X120.593 Y98.777 E0.0038
G1 X120.598 Y98.774 E0.0002
G1 X121.155 Y98.415 E0.0235
G1 X121.160 Y98.412 E0.0002
G1 X121.268 Y98.351 E0.0044
G1 X121.274 Y98.348 E0.0002
G1 X122.048 Y97.969 E0.0307
G1 X122.056 Y97.965 E0.0003
G1 X122.206 Y97.906 E0.0057
G1 X122.214 Y97.903 E0.0003
G1 X123.237 Y97.583 E0.0381
G1 X123.245 Y97.581 E0.0003
G1 X123.384 Y97.547 E0.0051
G1 X123.392 Y97.546 E0.0003
G1 X124.055 Y97.434 E0.0239
G1 X124.060 Y97.433 E0.0002
G1 X124.167 Y97.421 E0.0038
G1 X124.172 Y97.420 E0.0002
G1 X124.825 Y97.377 E0.0233
G1 X124.831 Y97.377 E0.0002
G1 X124.938 Y97.375 E0.0038
G1 X124.943 Y97.375 E0.0002
G1 X125.597 Y97.398 E0.0232
G1 X125.603 Y97.399 E0.0002
G1 X125.709 Y97.408 E0.0038
G1 X125.715 Y97.409 E0.0002
G1 X126.363 Y97.498 E0.0232
G1 X126.369 Y97.499 E0.0002
G1 X126.474 Y97.519 E0.0038
G1 X126.479 Y97.520 E0.0002
G1 X127.132 Y97.678 E0.0239
G1 X127.140 Y97.680 E0.0003
G1 X127.276 Y97.723 E0.0051
G1 X127.283 Y97.726 E0.0003
G1 X128.264 Y98.110 E0.0375
G1 X128.271 Y98.113 E0.0003
G1 X128.400 Y98.174 E0.0051
G1 X128.407 Y98.178 E0.0003
G1 X128.994 Y98.505 E0.0239
G1 X128.999 Y98.508 E0.0002
G1 X129.090 Y98.564 E0.0038
G1 X129.094 Y98.568 E0.0002
G1 X129.631 Y98.942 E0.0233
G1 X129.635 Y98.945 E0.0002
G1 X129.720 Y99.011 E0.0038
G1 X129.724 Y99.015 E0.0002
G1 X130.220 Y99.442 E0.0232
G1 X130.224 Y99.446 E0.0002
G1 X130.301 Y99.519 E0.0038
G1 X130.305 Y99.523 E0.0002
G1 X130.755 Y99.998 E0.0232
G1 X130.759 Y100.002 E0.0002
G1 X130.829 Y100.084 E0.0038
G1 X130.832 Y100.088 E0.0002
G1 X131.232 Y100.606 E0.0233
G1 X131.235 Y100.611 E0.0002
G1 X131.296 Y100.699 E0.0038
G1 X131.299 Y100.704 E0.0002
G1 X131.644 Y101.259 E0.0232
G1 X131.647 Y101.264 E0.0002
G1 X131.699 Y101.358 E0.0038
G1 X131.702 Y101.363 E0.0002
G1 X131.989 Y101.950 E0.0232
G1 X131.991 Y101.956 E0.0002
G1 X132.033 Y102.054 E0.0038
G1 X132.035 Y102.059 E0.0002
G1 X132.261 Y102.673 E0.0233
G1 X132.263 Y102.679 E0.0002
G1 X132.295 Y102.781 E0.0038
G1 X132.297 Y102.786 E0.0002
G1 X132.459 Y103.420 E0.0232
G1 X132.461 Y103.425 E0.0002
G1 X132.482 Y103.530 E0.0038
G1 X132.483 Y103.536 E0.0002
G1 X132.584 Y104.200 E0.0239
G1 X132.585 Y104.208 E0.0003
G1 X132.596 Y104.350 E0.0051
G1 X132.597 Y104.358 E0.0003
G1 X132.613 Y105.411 E0.0375
G1 X132.613 Y105.419 E0.0003
G1 X132.605 Y105.561 E0.0051
G1 X132.604 Y105.569 E0.0003
G1 X132.524 Y106.236 E0.0239
G1 X132.523 Y106.242 E0.0002
G1 X132.505 Y106.347 E0.0038
G1 X132.504 Y106.353 E0.0002
G1 X132.360 Y106.991 E0.0232
G1 X132.359 Y106.996 E0.0002
G1 X132.330 Y107.100 E0.0038
G1 X132.329 Y107.105 E0.0002
G1 X132.121 Y107.725 E0.0232
G1 X132.119 Y107.731 E0.0002
G1 X132.080 Y107.830 E0.0038
G1 X132.078 Y107.836 E0.0002
G1 X131.809 Y108.432 E0.0232
G1 X131.807 Y108.437 E0.0002
G1 X131.758 Y108.532 E0.0038
G1 X131.755 Y108.537 E0.0002
G1 X131.427 Y109.103 E0.0232
G1 X131.424 Y109.108 E0.0002
G1 X131.366 Y109.198 E0.0038
G1 X131.362 Y109.202 E0.0002
G1 X130.979 Y109.732 E0.0232
G1 X130.975 Y109.737 E0.0002
G1 X130.908 Y109.820 E0.0038
G1 X130.905 Y109.825 E0.0002
G1 X130.469 Y110.313 E0.0233
G1 X130.465 Y110.317 E0.0002
G1 X130.390 Y110.393 E0.0038
G1 X130.386 Y110.397 E0.0002
G1 X129.904 Y110.839 E0.0232
G1 X129.900 Y110.843 E0.0002
G1 X129.817 Y110.911 E0.0038
G1 X129.813 Y110.914 E0.0002
G1 X129.288 Y111.305 E0.0232
G1 X129.283 Y111.308 E0.0002
G1 X129.194 Y111.368 E0.0038
G1 X129.190 Y111.371 E0.0002
G1 X128.620 Y111.711 E0.0236
G1 X128.615 Y111.714 E0.0002
G1 X128.504 Y111.772 E0.0044
G1 X128.498 Y111.775 E0.0002
G1 X127.718 Y112.123 E0.0304
G1 X127.712 Y112.126 E0.0002
G1 X127.595 Y112.170 E0.0044
G1 X127.589 Y112.172 E0.0002
G1 X126.956 Y112.370 E0.0236
G1 X126.951 Y112.371 E0.0002
G1 X126.847 Y112.398 E0.0038
G1 X126.841 Y112.399 E0.0002
G1 X126.200 Y112.530 E0.0232
G1 X126.195 Y112.531 E0.0002
G1 X126.089 Y112.547 E0.0038
G1 X126.083 Y112.548 E0.0002
G1 X125.433 Y112.613 E0.0232
G1 X125.427 Y112.613 E0.0002
G1 X125.320 Y112.618 E0.0038
G1 X125.314 Y112.618 E0.0002
G1 X124.660 Y112.617 E0.0233
G1 X124.654 Y112.617 E0.0002
G1 X124.547 Y112.612 E0.0038
G1 X124.542 Y112.611 E0.0002
G1 X123.891 Y112.544 E0.0232
G1 X123.886 Y112.543 E0.0002
G1 X123.780 Y112.527 E0.0038
G1 X123.774 Y112.526 E0.0002
G1 X123.134 Y112.393 E0.0232
G1 X123.128 Y112.392 E0.0002
G1 X123.025 Y112.365 E0.0038
G1 X123.019 Y112.363 E0.0002
G1 X122.395 Y112.166 E0.0233
G1 X122.390 Y112.164 E0.0002
G1 X122.290 Y112.127 E0.0038
G1 X122.284 Y112.125 E0.0002
G1 X121.684 Y111.866 E0.0232
G1 X121.679 Y111.864 E0.0002
G1 X121.582 Y111.816 E0.0038
G1 X121.577 Y111.814 E0.0002
G1 X121.006 Y111.495 E0.0232
G1 X121.001 Y111.492 E0.0002
G1 X120.910 Y111.436 E0.0038
G1 X120.906 Y111.432 E0.0002
G1 X120.369 Y111.058 E0.0233
G1 X120.365 Y111.054 E0.0002
G1 X120.280 Y110.989 E0.0038
G1 X120.276 Y110.985 E0.0002
G1 X119.780 Y110.558 E0.0232
G1 X119.776 Y110.554 E0.0002
G1 X119.699 Y110.481 E0.0038
G1 X119.695 Y110.477 E0.0002
G1 X119.245 Y110.002 E0.0232
G1 X119.241 Y109.998 E0.0002
G1 X119.171 Y109.916 E0.0038
G1 X119.168 Y109.912 E0.0002
G1 X118.768 Y109.394 E0.0233
G1 X118.765 Y109.389 E0.0002
G1 X118.704 Y109.301 E0.0038
G1 X118.701 Y109.297 E0.0002
G1 X118.346 Y108.726 E0.0239
G1 X118.343 Y108.719 E0.0003
G1 X118.276 Y108.593 E0.0051
G1 X118.272 Y108.586 E0.0003
G1 X117.842 Y107.624 E0.0375
G1 X117.839 Y107.617 E0.0003
G1 X117.790 Y107.483 E0.0051
G1 X117.787 Y107.476 E0.0003
G1 X117.598 Y106.831 E0.0239
G1 X117.597 Y106.826 E0.0002
G1 X117.572 Y106.722 E0.0038
G1 X117.571 Y106.716 E0.0002
G1 X117.451 Y106.073 E0.0232
G1 X117.450 Y106.067 E0.0002
G1 X117.436 Y105.961 E0.0038
G1 X117.435 Y105.956 E0.0002
G1 X117.381 Y105.304 E0.0232
G1 X117.381 Y105.298 E0.0002
G1 X117.377 Y105.191 E0.0038
G1 X117.377 Y105.185 E0.0002
G1 X117.389 Y104.532 E0.0232
G1 X117.390 Y104.526 E0.0002
G1 X117.397 Y104.419 E0.0038
G1 X117.398 Y104.413 E0.0002
G1 X117.476 Y103.764 E0.0233
G1 X117.477 Y103.758 E0.0002
G1 X117.495 Y103.653 E0.0038
G1 X117.496 Y103.647 E0.0002
G1 X117.640 Y103.009 E0.0232
G1 X117.641 Y103.004 E0.0002
G1 X117.670 Y102.900 E0.0038
G1 X117.671 Y102.895 E0.0002
G1 X117.879 Y102.275 E0.0232
G1 X117.881 Y102.269 E0.0002
G1 X117.920 Y102.170 E0.0038
G1 X117.922 Y102.164 E0.0002
G1 X118.191 Y101.568 E0.0232
G1 X118.193 Y101.563 E0.0002
G1 X118.242 Y101.468 E0.0038
G1 X118.245 Y101.463 E0.0002
G1 X118.573 Y100.897 E0.0232
G1 X118.576 Y100.892 E0.0002
G1 X118.634 Y100.802 E0.0038
G1 X118.638 Y100.798 E0.0002
G1 X119.007 Y100.287 E0.0224
G1 X119.032 Y100.253 F1440
G1 X119.036 Y100.247 F1440
G1 X119.128 Y100.138 F1440
G1 X119.133 Y100.132 F1440
; inner perimeter
M204 S1200
; outer perimeter
M204 S600
G1 X120.959 Y101.750 F4800
G1 X121.310 Y101.357 E0.0187 F1152
G1 X121.561 Y101.118 E0.0123
G1 X121.973 Y100.789 E0.0187
G1 X122.415 Y100.505 E0.0187
G1 X122.886 Y100.264 E0.0188
G1 X123.034 Y100.201 E0.0057
G1 X123.371 Y100.077 E0.0128
G1 X123.879 Y99.937 E0.0187
G1 X124.397 Y99.849 E0.0187
G1 X124.921 Y99.815 E0.0187
G1 X125.446 Y99.833 E0.0187
G1 X125.966 Y99.905 E0.0187
G1 X126.477 Y100.029 E0.0187
G1 X126.974 Y100.204 E0.0187
G1 X127.290 Y100.347 E0.0123
G1 X127.751 Y100.604 E0.0187
G1 X128.181 Y100.904 E0.0187
G1 X128.579 Y101.247 E0.0187
G1 X128.940 Y101.629 E0.0187
G1 X129.261 Y102.045 E0.0187
G1 X129.538 Y102.491 E0.0187
G1 X129.769 Y102.963 E0.0187
G1 X129.951 Y103.456 E0.0187
G1 X130.081 Y103.965 E0.0187
G1 X130.160 Y104.486 E0.0187
G1 X130.183 Y104.832 E0.0123
G1 X130.173 Y105.359 E0.0187
G1 X130.111 Y105.880 E0.0187
G1 X129.995 Y106.393 E0.0187
G1 X129.829 Y106.891 E0.0187
G1 X129.613 Y107.370 E0.0187
G1 X129.349 Y107.824 E0.0187
G1 X129.041 Y108.250 E0.0187
G1 X128.692 Y108.642 E0.0187
G1 X128.304 Y108.997 E0.0187
G1 X127.883 Y109.311 E0.0187
G1 X127.430 Y109.581 E0.0187
G1 X127.117 Y109.734 E0.0124
G1 X126.795 Y109.865 E0.0124
G1 X126.291 Y110.022 E0.0187
G1 X125.777 Y110.127 E0.0187
G1 X125.254 Y110.180 E0.0187
G1 X124.729 Y110.179 E0.0187
G1 X124.206 Y110.125 E0.0187
G1 X123.692 Y110.018 E0.0187
G1 X123.191 Y109.860 E0.0187
G1 X122.708 Y109.652 E0.0187
G1 X122.249 Y109.396 E0.0187
G1 X121.819 Y109.096 E0.0187
G1 X121.421 Y108.753 E0.0187
G1 X121.060 Y108.371 E0.0187
G1 X120.739 Y107.955 E0.0187
G1 X120.462 Y107.509 E0.0187
G1 X120.230 Y107.035 E0.0187
G1 X120.105 Y106.712 E0.0123
G1 X119.956 Y106.206 E0.0187
G1 X119.860 Y105.690 E0.0187
G1 X119.817 Y105.166 E0.0187
G1 X119.827 Y104.641 E0.0187
G1 X119.889 Y104.120 E0.0187
G1 X120.005 Y103.607 E0.0187
G1 X120.171 Y103.109 E0.0187
G1 X120.387 Y102.630 E0.0187
G1 X120.651 Y102.176 E0.0187
G1 X120.842 Y101.912 E0.0116
G1 X120.959 Y101.750 F1152
G1 X121.310 Y101.357 F2400
G1 X121.561 Y101.118 F2400
G1 X121.973 Y100.789 F2400
G1 X122.415 Y100.505 F2400
G1 X122.480 Y100.471 F2400
; inner perimeter
M204 S1200
; outer perimeter
M204 S600
G1 X121.612 Y101.868 F4800
G1 X121.283 Y102.267 E0.0184 F1152
G1 X121.002 Y102.697 E0.0182
G1 X120.920 Y102.846 E0.0061
G1 X120.767 Y103.165 E0.0126
G1 X120.589 Y103.648 E0.0183
G1 X120.465 Y104.149 E0.0183
G1 X120.414 Y104.494 E0.0124
G1 X120.386 Y105.007 E0.0182
G1 X120.400 Y105.355 E0.0124
G1 X120.468 Y105.864 E0.0182
G1 X120.546 Y106.202 E0.0123
G1 X120.649 Y106.534 E0.0123
G1 X120.847 Y107.010 E0.0183
G1 X121.097 Y107.460 E0.0183
G1 X121.294 Y107.748 E0.0124
G1 X121.624 Y108.145 E0.0183
G1 X121.995 Y108.501 E0.0183
G1 X122.269 Y108.719 E0.0124
G1 X122.699 Y108.999 E0.0183
G1 X123.008 Y109.162 E0.0124
G1 X123.484 Y109.358 E0.0183
G1 X123.980 Y109.500 E0.0183
G1 X124.323 Y109.564 E0.0124
G1 X124.834 Y109.611 E0.0183
G1 X125.183 Y109.610 E0.0124
G1 X125.696 Y109.561 E0.0183
G1 X126.201 Y109.455 E0.0183
G1 X126.534 Y109.351 E0.0124
G1 X127.008 Y109.154 E0.0183
G1 X127.316 Y108.990 E0.0124
G1 X127.747 Y108.707 E0.0183
G1 X128.145 Y108.376 E0.0184
G1 X128.501 Y108.005 E0.0183
G1 X128.719 Y107.731 E0.0124
G1 X128.999 Y107.301 E0.0182
G1 X129.162 Y106.992 E0.0124
G1 X129.358 Y106.516 E0.0183
G1 X129.500 Y106.018 E0.0184
G1 X129.586 Y105.510 E0.0183
G1 X129.611 Y105.162 E0.0124
G1 X129.600 Y104.647 E0.0183
G1 X129.532 Y104.136 E0.0183
G1 X129.454 Y103.798 E0.0123
G1 X129.351 Y103.466 E0.0123
G1 X129.153 Y102.990 E0.0183
G1 X128.903 Y102.540 E0.0183
G1 X128.706 Y102.252 E0.0124
G1 X128.376 Y101.855 E0.0183
G1 X128.005 Y101.499 E0.0183
G1 X127.731 Y101.281 E0.0124
G1 X127.301 Y101.001 E0.0182
G1 X126.992 Y100.838 E0.0124
G1 X126.516 Y100.642 E0.0183
G1 X126.020 Y100.500 E0.0183
G1 X125.677 Y100.436 E0.0124
G1 X125.164 Y100.389 E0.0183
G1 X124.649 Y100.400 E0.0183
G1 X124.302 Y100.439 E0.0124
G1 X123.799 Y100.545 E0.0182
G1 X123.466 Y100.649 E0.0124
G1 X122.992 Y100.846 E0.0182
G1 X122.684 Y101.010 E0.0124
G1 X122.255 Y101.292 E0.0182
G1 X121.982 Y101.510 E0.0124
G1 X121.756 Y101.729 E0.0112
G1 X121.612 Y101.868 F1152
G1 X121.283 Y102.267 E-0.3881 F2400
G1 X121.002 Y102.697 E-0.3849
G1 X120.985 Y102.729 E-0.0270
G1 X120.920 Y102.846 F2400
G1 X120.767 Y103.165 F2400
G1 X120.613 Y103.583 F2400
; layer 2, Z = 0.4
M104 S200 T0
M106 S255
; tool H0.200 W0.450
; inner perimeter
M204 S1200
; outer perimeter
M204 S600
G1 X120.126 Y103.262 F4800
G1 Z0.400 F1000
G1 E0.8000 F1800
G1 X120.328 Y102.776 E0.0197 F1920
G1 X120.577 Y102.315 E0.0196
G1 X120.871 Y101.881 E0.0196
G1 X121.208 Y101.480 E0.0196
G1 X121.583 Y101.114 E0.0196
G1 X121.994 Y100.788 E0.0196
G1 X122.436 Y100.506 E0.0196
G1 X122.907 Y100.268 E0.0198
G1 X123.038 Y100.212 E0.0053
G1 X123.391 Y100.082 E0.0141
G1 X123.899 Y99.944 E0.0197
G1 X124.416 Y99.859 E0.0196
G1 X124.939 Y99.826 E0.0196
G1 X125.463 Y99.846 E0.0196
G1 X125.982 Y99.920 E0.0196
G1 X126.491 Y100.045 E0.0196
G1 X126.984 Y100.221 E0.0196
G1 X127.457 Y100.446 E0.0196
G1 X127.906 Y100.719 E0.0196
G1 X128.324 Y101.034 E0.0196
G1 X128.708 Y101.391 E0.0196
G1 X129.055 Y101.786 E0.0197
G1 X129.261 Y102.064 E0.0129
G1 X129.537 Y102.512 E0.0197
G1 X129.765 Y102.984 E0.0196
G1 X129.945 Y103.476 E0.0196
G1 X130.074 Y103.984 E0.0196
G1 X130.150 Y104.503 E0.0196
G1 X130.174 Y105.026 E0.0196
G1 X130.145 Y105.550 E0.0196
G1 X130.063 Y106.067 E0.0196
G1 X129.929 Y106.576 E0.0197
G1 X129.812 Y106.901 E0.0129
G1 X129.594 Y107.380 E0.0197
G1 X129.330 Y107.833 E0.0196
G1 X129.021 Y108.256 E0.0196
G1 X128.671 Y108.646 E0.0196
G1 X128.283 Y108.999 E0.0196
G1 X127.862 Y109.311 E0.0196
G1 X127.410 Y109.579 E0.0197
G1 X127.098 Y109.730 E0.0129
G1 X126.607 Y109.918 E0.0197
G1 X126.101 Y110.056 E0.0196
G1 X125.584 Y110.141 E0.0196
G1 X125.059 Y110.174 E0.0197
G1 X124.714 Y110.166 E0.0129
G1 X124.191 Y110.111 E0.0197
G1 X123.678 Y110.003 E0.0196
G1 X123.178 Y109.843 E0.0196
G1 X122.698 Y109.634 E0.0196
G1 X122.239 Y109.376 E0.0197
G1 X121.953 Y109.182 E0.0129
G1 X121.544 Y108.851 E0.0197
G1 X121.172 Y108.482 E0.0196
G1 X120.840 Y108.077 E0.0196
G1 X120.550 Y107.640 E0.0196
G1 X120.306 Y107.176 E0.0196
G1 X120.109 Y106.690 E0.0196
G1 X119.964 Y106.187 E0.0196
G1 X119.869 Y105.671 E0.0196
G1 X119.828 Y105.149 E0.0196
G1 X119.839 Y104.624 E0.0196
G1 X119.904 Y104.104 E0.0196
G1 X120.021 Y103.591 E0.0197
G1 X120.065 Y103.453 E0.0055
G1 X120.126 Y103.262 F1920
G1 X120.328 Y102.776 F2400
G1 X120.577 Y102.315 F2400
G1 X120.871 Y101.881 F2400
G1 X121.145 Y101.555 F2400
; inner perimeter
M204 S1200
; outer perimeter
M204 S600
G1 X120.573 Y103.662 F4800
G1 X120.451 Y104.164 E0.0193 F1920
G1 X120.401 Y104.508 E0.0130
G1 X120.377 Y104.855 E0.0130
G1 X120.390 Y105.371 E0.0193
G1 X120.460 Y105.883 E0.0193
G1 X120.540 Y106.222 E0.0130
G1 X120.644 Y106.554 E0.0130
G1 X120.844 Y107.030 E0.0193
G1 X121.098 Y107.483 E0.0194
G1 X121.400 Y107.904 E0.0194
G1 X121.747 Y108.287 E0.0193
G1 X122.003 Y108.522 E0.0130
G1 X122.276 Y108.738 E0.0130
G1 X122.710 Y109.018 E0.0193
G1 X123.172 Y109.248 E0.0193
G1 X123.499 Y109.374 E0.0131
G1 X123.994 Y109.514 E0.0192
G1 X124.336 Y109.577 E0.0130
G1 X124.682 Y109.614 E0.0130
G1 X125.199 Y109.621 E0.0193
G1 X125.715 Y109.569 E0.0194
G1 X126.220 Y109.461 E0.0193
G1 X126.554 Y109.356 E0.0131
G1 X127.030 Y109.156 E0.0193
G1 X127.483 Y108.902 E0.0194
G1 X127.902 Y108.601 E0.0193
G1 X128.166 Y108.371 E0.0131
G1 X128.521 Y107.999 E0.0192
G1 X128.738 Y107.724 E0.0131
G1 X129.017 Y107.292 E0.0192
G1 X129.179 Y106.981 E0.0131
G1 X129.374 Y106.503 E0.0193
G1 X129.514 Y106.006 E0.0193
G1 X129.577 Y105.662 E0.0131
G1 X129.622 Y105.149 E0.0192
G1 X129.620 Y104.799 E0.0131
G1 X129.569 Y104.285 E0.0193
G1 X129.461 Y103.780 E0.0193
G1 X129.356 Y103.446 E0.0131
G1 X129.156 Y102.972 E0.0192
G1 X128.991 Y102.663 E0.0131
G1 X128.706 Y102.233 E0.0193
G1 X128.373 Y101.835 E0.0194
G1 X127.997 Y101.478 E0.0194
G1 X127.586 Y101.165 E0.0193
G1 X127.290 Y100.982 E0.0130
G1 X126.981 Y100.821 E0.0130
G1 X126.503 Y100.626 E0.0193
G1 X126.006 Y100.486 E0.0193
G1 X125.662 Y100.423 E0.0131
G1 X125.147 Y100.377 E0.0193
G1 X124.631 Y100.390 E0.0193
G1 X124.283 Y100.431 E0.0131
G1 X123.778 Y100.539 E0.0193
G1 X123.288 Y100.704 E0.0193
G1 X122.970 Y100.845 E0.0130
G1 X122.663 Y101.009 E0.0130
G1 X122.233 Y101.294 E0.0193
G1 X121.835 Y101.627 E0.0194
G1 X121.478 Y102.003 E0.0194
G1 X121.165 Y102.414 E0.0193
G1 X120.983 Y102.708 E0.0129
G1 X120.910 Y102.841 E0.0057
G1 X120.750 Y103.176 E0.0139
G1 X120.641 Y103.474 E0.0119
G1 X120.573 Y103.662 F1920
G1 X120.451 Y104.164 E-0.3874 F2400
G1 X120.401 Y104.508 E-0.2610
G1 X120.388 Y104.710 E-0.1516
G1 X120.377 Y104.855 F2400
G1 X120.390 Y105.371 F2400
G1 X120.427 Y105.640 F2400
; layer 3, Z = 0.6
; inner perimeter
M204 S1200
; outer perimeter
M204 S600
G1 X119.852 Y105.522 F4800
G1 Z0.600 F1000
G1 E0.8000 F1800
G1 X119.828 Y105.177 E0.0129 F1920
G1 X119.837 Y104.651 E0.0197
G1 X119.899 Y104.130 E0.0196
G1 X120.013 Y103.618 E0.0196
G1 X120.178 Y103.121 E0.0196
G1 X120.393 Y102.643 E0.0196
G1 X120.655 Y102.189 E0.0196
G1 X120.962 Y101.764 E0.0196
G1 X121.310 Y101.372 E0.0196
G1 X121.696 Y101.017 E0.0196
G1 X122.116 Y100.703 E0.0196
G1 X122.566 Y100.434 E0.0196
G1 X123.043 Y100.209 E0.0198
G1 X123.199 Y100.149 E0.0063
G1 X123.703 Y99.990 E0.0198
G1 X124.218 Y99.885 E0.0197
G1 X124.562 Y99.844 E0.0129
G1 X125.087 Y99.826 E0.0197
G1 X125.610 Y99.861 E0.0196
G1 X126.127 Y99.950 E0.0196
G1 X126.632 Y100.089 E0.0196
G1 X127.121 Y100.280 E0.0196
G1 X127.587 Y100.519 E0.0196
G1 X128.027 Y100.803 E0.0196
G1 X128.438 Y101.132 E0.0197
G1 X128.689 Y101.371 E0.0129
G1 X129.038 Y101.764 E0.0197
G1 X129.345 Y102.189 E0.0196
G1 X129.607 Y102.643 E0.0196
G1 X129.822 Y103.121 E0.0196
G1 X129.987 Y103.618 E0.0196
G1 X130.101 Y104.130 E0.0196
G1 X130.163 Y104.651 E0.0196
G1 X130.172 Y105.177 E0.0197
G1 X130.148 Y105.522 E0.0129
G1 X130.069 Y106.042 E0.0197
G1 X129.937 Y106.549 E0.0196
G1 X129.755 Y107.042 E0.0197
G1 X129.608 Y107.355 E0.0129
G1 X129.345 Y107.811 E0.0197
G1 X129.038 Y108.236 E0.0196
G1 X128.690 Y108.628 E0.0196
G1 X128.304 Y108.983 E0.0196
G1 X127.884 Y109.296 E0.0196
G1 X127.434 Y109.566 E0.0196
G1 X126.960 Y109.789 E0.0196
G1 X126.466 Y109.963 E0.0196
G1 X125.954 Y110.086 E0.0197
G1 X125.612 Y110.138 E0.0129
G1 X125.087 Y110.174 E0.0197
G1 X124.564 Y110.156 E0.0196
G1 X124.044 Y110.086 E0.0196
G1 X123.534 Y109.963 E0.0196
G1 X123.040 Y109.789 E0.0196
G1 X122.566 Y109.566 E0.0196
G1 X122.116 Y109.297 E0.0196
G1 X121.696 Y108.983 E0.0196
G1 X121.310 Y108.628 E0.0196
G1 X120.962 Y108.236 E0.0196
G1 X120.655 Y107.811 E0.0196
G1 X120.392 Y107.355 E0.0197
G1 X120.245 Y107.042 E0.0129
G1 X120.063 Y106.549 E0.0197
G1 X119.931 Y106.042 E0.0196
G1 X119.882 Y105.719 E0.0122
G1 X119.852 Y105.522 F1920
G1 X119.828 Y105.177 F2400
G1 X119.837 Y104.651 F2400
G1 X119.899 Y104.130 F2400
G1 X120.013 Y103.618 F2400
G1 X120.038 Y103.543 F2400
; inner perimeter
M204 S1200
; outer perimeter
M204 S600
G1 X120.426 Y105.687 F4800
G1 X120.491 Y106.031 E0.0131 F1920
G1 X120.634 Y106.526 E0.0193
G1 X120.762 Y106.852 E0.0131
G1 X120.994 Y107.313 E0.0193
G1 X121.277 Y107.745 E0.0193
G1 X121.496 Y108.019 E0.0131
G1 X121.853 Y108.389 E0.0193
G1 X122.118 Y108.617 E0.0131
G1 X122.539 Y108.916 E0.0193
G1 X122.993 Y109.167 E0.0194
G1 X123.472 Y109.366 E0.0194
G1 X123.969 Y109.509 E0.0193
G1 X124.313 Y109.574 E0.0131
G1 X124.825 Y109.622 E0.0193
G1 X125.175 Y109.622 E0.0131
G1 X125.687 Y109.574 E0.0193
G1 X126.031 Y109.509 E0.0131
G1 X126.528 Y109.366 E0.0193
G1 X127.007 Y109.167 E0.0194
G1 X127.461 Y108.916 E0.0194
G1 X127.882 Y108.617 E0.0193
G1 X128.148 Y108.389 E0.0131
G1 X128.504 Y108.019 E0.0193
G1 X128.723 Y107.745 E0.0131
G1 X129.005 Y107.314 E0.0192
G1 X129.168 Y107.005 E0.0131
G1 X129.365 Y106.530 E0.0193
G1 X129.468 Y106.195 E0.0131
G1 X129.574 Y105.689 E0.0193
G1 X129.622 Y105.175 E0.0193
G1 X129.622 Y104.825 E0.0131
G1 X129.574 Y104.313 E0.0193
G1 X129.509 Y103.969 E0.0131
G1 X129.366 Y103.472 E0.0193
G1 X129.168 Y102.995 E0.0193
G1 X129.005 Y102.686 E0.0131
G1 X128.723 Y102.255 E0.0193
G1 X128.504 Y101.981 E0.0131
G1 X128.148 Y101.611 E0.0193
G1 X127.882 Y101.383 E0.0131
G1 X127.461 Y101.084 E0.0193
G1 X127.009 Y100.834 E0.0193
G1 X126.688 Y100.694 E0.0131
G1 X126.197 Y100.532 E0.0193
G1 X125.691 Y100.427 E0.0193
G1 X125.346 Y100.388 E0.0130
G1 X124.998 Y100.375 E0.0130
G1 X124.482 Y100.404 E0.0193
G1 X123.973 Y100.490 E0.0193
G1 X123.635 Y100.581 E0.0131
G1 X123.152 Y100.760 E0.0193
G1 X122.837 Y100.912 E0.0131
G1 X122.394 Y101.178 E0.0193
G1 X121.983 Y101.494 E0.0194
G1 X121.611 Y101.853 E0.0193
G1 X121.384 Y102.116 E0.0130
G1 X121.177 Y102.396 E0.0130
G1 X120.913 Y102.835 E0.0192
G1 X120.832 Y102.995 E0.0067
G1 X120.694 Y103.312 E0.0129
G1 X120.532 Y103.803 E0.0193
G1 X120.426 Y104.311 E0.0194
G1 X120.378 Y104.825 E0.0193
G1 X120.378 Y105.175 E0.0131
G1 X120.407 Y105.488 E0.0118
G1 X120.426 Y105.687 F1920
G1 X120.491 Y106.031 E-0.2626 F2400
G1 X120.634 Y106.526 E-0.3859
G1 X120.707 Y106.714 E-0.1516
G1 X120.762 Y106.852 F2400
G1 X120.994 Y107.313 F2400
G1 X121.142 Y107.538 F2400
; layer 4, Z = 0.8
; inner perimeter
M204 S1200
; outer perimeter
M204 S600
G1 X120.655 Y107.811 F4800
G1 Z0.800 F1000
G1 E0.8000 F1800
G1 X120.392 Y107.355 E0.0197 F1920
G1 X120.245 Y107.042 E0.0129
G1 X120.063 Y106.549 E0.0197
G1 X119.931 Y106.042 E0.0196
G1 X119.852 Y105.522 E0.0197
G1 X119.828 Y105.177 E0.0129
G1 X119.837 Y104.651 E0.0197
G1 X119.899 Y104.130 E0.0196
G1 X120.013 Y103.618 E0.0196
G1 X120.178 Y103.121 E0.0196
G1 X120.393 Y102.643 E0.0196
G1 X120.655 Y102.189 E0.0196
G1 X120.962 Y101.764 E0.0196
G1 X121.310 Y101.372 E0.0196
G1 X121.696 Y101.017 E0.0196
G1 X122.116 Y100.703 E0.0196
G1 X122.566 Y100.434 E0.0196
G1 X123.043 Y100.209 E0.0198
G1 X123.199 Y100.149 E0.0063
G1 X123.703 Y99.990 E0.0198
G1 X124.218 Y99.885 E0.0197
G1 X124.562 Y99.844 E0.0129
G1 X125.087 Y99.826 E0.0197
G1 X125.610 Y99.861 E0.0196
G1 X126.127 Y99.950 E0.0196
G1 X126.632 Y100.089 E0.0196
G1 X127.121 Y100.280 E0.0196
G1 X127.587 Y100.519 E0.0196
G1 X128.027 Y100.803 E0.0196
G1 X128.438 Y101.132 E0.0197
G1 X128.689 Y101.371 E0.0129
G1 X129.038 Y101.764 E0.0197
G1 X129.345 Y102.189 E0.0196
G1 X129.607 Y102.643 E0.0196
G1 X129.822 Y103.121 E0.0196
G1 X129.987 Y103.618 E0.0196
G1 X130.101 Y104.130 E0.0196
G1 X130.163 Y104.651 E0.0196
G1 X130.172 Y105.177 E0.0197
G1 X130.148 Y105.522 E0.0129
G1 X130.069 Y106.042 E0.0197
G1 X129.937 Y106.549 E0.0196
G1 X129.755 Y107.042 E0.0197
G1 X129.608 Y107.355 E0.0129
G1 X129.345 Y107.811 E0.0197
G1 X129.038 Y108.236 E0.0196
G1 X128.690 Y108.628 E0.0196
G1 X128.304 Y108.983 E0.0196
G1 X127.884 Y109.296 E0.0196
G1 X127.434 Y109.566 E0.0196
G1 X126.960 Y109.789 E0.0196
G1 X126.466 Y109.963 E0.0196
G1 X125.954 Y110.086 E0.0197
G1 X125.612 Y110.138 E0.0129
G1 X125.087 Y110.174 E0.0197
G1 X124.564 Y110.156 E0.0196
G1 X124.044 Y110.086 E0.0196
G1 X123.534 Y109.963 E0.0196
G1 X123.040 Y109.789 E0.0196
G1 X122.566 Y109.566 E0.0196
G1 X122.116 Y109.297 E0.0196
G1 X121.696 Y108.983 E0.0196
G1 X121.310 Y108.628 E0.0196
G1 X120.962 Y108.236 E0.0196
G1 X120.772 Y107.973 E0.0121
G1 X120.655 Y107.811 F1920
G1 X120.392 Y107.355 F2400
G1 X120.245 Y107.042 F2400
G1 X120.063 Y106.549 F2400
G1 X119.931 Y106.042 F2400
G1 X119.919 Y105.965 F2400
; inner perimeter
M204 S1200
; outer perimeter
M204 S600
G1 X121.277 Y107.745 F4800
G1 X121.496 Y108.019 E0.0131 F1920
G1 X121.853 Y108.389 E0.0193
G1 X122.118 Y108.617 E0.0131
G1 X122.539 Y108.916 E0.0193
G1 X122.993 Y109.167 E0.0194
G1 X123.472 Y109.366 E0.0194
G1 X123.969 Y109.509 E0.0193
G1 X124.313 Y109.574 E0.0131
G1 X124.825 Y109.622 E0.0193
G1 X125.175 Y109.622 E0.0131
G1 X125.687 Y109.574 E0.0193
G1 X126.031 Y109.509 E0.0131
G1 X126.528 Y109.366 E0.0193
G1 X127.007 Y109.167 E0.0194
G1 X127.461 Y108.916 E0.0194
G1 X127.882 Y108.617 E0.0193
G1 X128.148 Y108.389 E0.0131
G1 X128.504 Y108.019 E0.0193
G1 X128.723 Y107.745 E0.0131
G1 X129.005 Y107.314 E0.0192
G1 X129.168 Y107.005 E0.0131
G1 X129.365 Y106.530 E0.0193
G1 X129.468 Y106.195 E0.0131
G1 X129.574 Y105.689 E0.0193
G1 X129.622 Y105.175 E0.0193
G1 X129.622 Y104.825 E0.0131
G1 X129.574 Y104.313 E0.0193
G1 X129.509 Y103.969 E0.0131
G1 X129.366 Y103.472 E0.0193
G1 X129.168 Y102.995 E0.0193
G1 X129.005 Y102.686 E0.0131
G1 X128.723 Y102.255 E0.0193
G1 X128.504 Y101.981 E0.0131
G1 X128.148 Y101.611 E0.0193
G1 X127.882 Y101.383 E0.0131
G1 X127.461 Y101.084 E0.0193
G1 X127.009 Y100.834 E0.0193
G1 X126.688 Y100.694 E0.0131
G1 X126.197 Y100.532 E0.0193
G1 X125.691 Y100.427 E0.0193
G1 X125.346 Y100.388 E0.0130
G1 X124.998 Y100.375 E0.0130
G1 X124.482 Y100.404 E0.0193
G1 X123.973 Y100.490 E0.0193
G1 X123.635 Y100.581 E0.0131
G1 X123.152 Y100.760 E0.0193
G1 X122.837 Y100.912 E0.0131
G1 X122.394 Y101.178 E0.0193
G1 X121.983 Y101.494 E0.0194
G1 X121.611 Y101.853 E0.0193
G1 X121.384 Y102.116 E0.0130
G1 X121.177 Y102.396 E0.0130
G1 X120.913 Y102.835 E0.0192
G1 X120.832 Y102.995 E0.0067
G1 X120.694 Y103.312 E0.0129
G1 X120.532 Y103.803 E0.0193
G1 X120.426 Y104.311 E0.0194
G1 X120.378 Y104.825 E0.0193
G1 X120.378 Y105.175 E0.0131
G1 X120.426 Y105.687 E0.0193
G1 X120.491 Y106.031 E0.0131
G1 X120.634 Y106.526 E0.0193
G1 X120.762 Y106.852 E0.0131
G1 X120.994 Y107.313 E0.0193
G1 X121.168 Y107.578 E0.0118
G1 X121.277 Y107.745 F1920
G1 X121.496 Y108.019 E-0.2626 F2400
G1 X121.853 Y108.389 E-0.3859
G1 X122.006 Y108.521 E-0.1516
G1 X122.118 Y108.617 F2400
G1 X122.539 Y108.916 F2400
G1 X122.774 Y109.046 F2400
; layer 5, Z = 1
; inner perimeter
M204 S1200
; outer perimeter
M204 S600
G1 X122.566 Y109.566 F4800
G1 Z1.000 F1000
G1 E0.8000 F1800
G1 X122.116 Y109.297 E0.0196 F1920
G1 X121.696 Y108.983 E0.0196
G1 X121.310 Y108.628 E0.0196
G1 X120.962 Y108.236 E0.0196
G1 X120.655 Y107.811 E0.0196
G1 X120.392 Y107.355 E0.0197
G1 X120.245 Y107.042 E0.0129
G1 X120.063 Y106.549 E0.0197
G1 X119.931 Y106.042 E0.0196
G1 X119.852 Y105.522 E0.0197
G1 X119.828 Y105.177 E0.0129
G1 X119.837 Y104.651 E0.0197
G1 X119.899 Y104.130 E0.0196
G1 X120.013 Y103.618 E0.0196
G1 X120.178 Y103.121 E0.0196
G1 X120.393 Y102.643 E0.0196
G1 X120.655 Y102.189 E0.0196
G1 X120.962 Y101.764 E0.0196
G1 X121.310 Y101.372 E0.0196
G1 X121.696 Y101.017 E0.0196
G1 X122.116 Y100.703 E0.0196
G1 X122.566 Y100.434 E0.0196
G1 X123.043 Y100.209 E0.0198
G1 X123.199 Y100.149 E0.0063
G1 X123.703 Y99.990 E0.0198
G1 X124.218 Y99.885 E0.0197
G1 X124.562 Y99.844 E0.0129
G1 X125.087 Y99.826 E0.0197
G1 X125.610 Y99.861 E0.0196
G1 X126.127 Y99.950 E0.0196
G1 X126.632 Y100.089 E0.0196
G1 X127.121 Y100.280 E0.0196
G1 X127.587 Y100.519 E0.0196
G1 X128.027 Y100.803 E0.0196
G1 X128.438 Y101.132 E0.0197
G1 X128.689 Y101.371 E0.0129
G1 X129.038 Y101.764 E0.0197
G1 X129.345 Y102.189 E0.0196
G1 X129.607 Y102.643 E0.0196
G1 X129.822 Y103.121 E0.0196
G1 X129.987 Y103.618 E0.0196
G1 X130.101 Y104.130 E0.0196
G1 X130.163 Y104.651 E0.0196
G1 X130.172 Y105.177 E0.0197
G1 X130.148 Y105.522 E0.0129
G1 X130.069 Y106.042 E0.0197
G1 X129.937 Y106.549 E0.0196
G1 X129.755 Y107.042 E0.0197
G1 X129.608 Y107.355 E0.0129
G1 X129.345 Y107.811 E0.0197
G1 X129.038 Y108.236 E0.0196
G1 X128.690 Y108.628 E0.0196
G1 X128.304 Y108.983 E0.0196
G1 X127.884 Y109.296 E0.0196
G1 X127.434 Y109.566 E0.0196
G1 X126.960 Y109.789 E0.0196
G1 X126.466 Y109.963 E0.0196
G1 X125.954 Y110.086 E0.0197
G1 X125.612 Y110.138 E0.0129
G1 X125.087 Y110.174 E0.0197
G1 X124.564 Y110.156 E0.0196
G1 X124.044 Y110.086 E0.0196
G1 X123.534 Y109.963 E0.0196
G1 X123.040 Y109.789 E0.0196
G1 X122.747 Y109.651 E0.0121
G1 X122.566 Y109.566 F1920
G1 X122.116 Y109.297 F2400
G1 X121.696 Y108.983 F2400
G1 X121.310 Y108.628 F2400
G1 X121.026 Y108.309 F2400
; inner perimeter
M204 S1200
; outer perimeter
M204 S600
G1 X122.993 Y109.167 F4800
G1 X123.472 Y109.366 E0.0194 F1920
G1 X123.969 Y109.509 E0.0193
G1 X124.313 Y109.574 E0.0131
G1 X124.825 Y109.622 E0.0193
G1 X125.175 Y109.622 E0.0131
G1 X125.687 Y109.574 E0.0193
G1 X126.031 Y109.509 E0.0131
G1 X126.528 Y109.366 E0.0193
G1 X127.007 Y109.167 E0.0194
G1 X127.461 Y108.916 E0.0194
G1 X127.882 Y108.617 E0.0193
G1 X128.148 Y108.389 E0.0131
G1 X128.504 Y108.019 E0.0193
G1 X128.723 Y107.745 E0.0131
G1 X129.005 Y107.314 E0.0192
G1 X129.168 Y107.005 E0.0131
G1 X129.365 Y106.530 E0.0193
G1 X129.468 Y106.195 E0.0131
G1 X129.574 Y105.689 E0.0193
G1 X129.622 Y105.175 E0.0193
G1 X129.622 Y104.825 E0.0131
G1 X129.574 Y104.313 E0.0193
G1 X129.509 Y103.969 E0.0131
G1 X129.366 Y103.472 E0.0193
G1 X129.168 Y102.995 E0.0193
G1 X129.005 Y102.686 E0.0131
G1 X128.723 Y102.255 E0.0193
G1 X128.504 Y101.981 E0.0131
G1 X128.148 Y101.611 E0.0193
G1 X127.882 Y101.383 E0.0131
G1 X127.461 Y101.084 E0.0193
G1 X127.009 Y100.834 E0.0193
G1 X126.688 Y100.694 E0.0131
G1 X126.197 Y100.532 E0.0193
G1 X125.691 Y100.427 E0.0193
G1 X125.346 Y100.388 E0.0130
G1 X124.998 Y100.375 E0.0130
G1 X124.482 Y100.404 E0.0193
G1 X123.973 Y100.490 E0.0193
G1 X123.635 Y100.581 E0.0131
G1 X123.152 Y100.760 E0.0193
G1 X122.837 Y100.912 E0.0131
G1 X122.394 Y101.178 E0.0193
G1 X121.983 Y101.494 E0.0194
G1 X121.611 Y101.853 E0.0193
G1 X121.384 Y102.116 E0.0130
G1 X121.177 Y102.396 E0.0130
G1 X120.913 Y102.835 E0.0192
G1 X120.832 Y102.995 E0.0067
G1 X120.694 Y103.312 E0.0129
G1 X120.532 Y103.803 E0.0193
G1 X120.426 Y104.311 E0.0194
G1 X120.378 Y104.825 E0.0193
G1 X120.378 Y105.175 E0.0131
G1 X120.426 Y105.687 E0.0193
G1 X120.491 Y106.031 E0.0131
G1 X120.634 Y106.526 E0.0193
G1 X120.762 Y106.852 E0.0131
G1 X120.994 Y107.313 E0.0193
G1 X121.277 Y107.745 E0.0193
G1 X121.496 Y108.019 E0.0131
G1 X121.853 Y108.389 E0.0193
G1 X122.118 Y108.617 E0.0131
G1 X122.539 Y108.916 E0.0193
G1 X122.818 Y109.071 E0.0119
G1 X122.993 Y109.167 F1920
G1 X123.472 Y109.366 E-0.3890 F2400
G1 X123.969 Y109.509 E-0.3874
G1 X124.000 Y109.515 E-0.0235
G1 X124.313 Y109.574 F2400
G1 X124.825 Y109.622 F2400
G1 X124.925 Y109.622 F2400
; layer 6, Z = 1.2
; inner perimeter
M204 S1200
; outer perimeter
M204 S600
G1 X125.087 Y110.174 F4800
G1 Z1.200 F1000
G1 E0.8000 F1800
G1 X124.564 Y110.156 E0.0196 F1920
G1 X124.044 Y110.086 E0.0196
G1 X123.534 Y109.963 E0.0196
G1 X123.040 Y109.789 E0.0196
G1 X122.566 Y109.566 E0.0196
G1 X122.116 Y109.297 E0.0196
G1 X121.696 Y108.983 E0.0196
G1 X121.310 Y108.628 E0.0196
G1 X120.962 Y108.236 E0.0196
G1 X120.655 Y107.811 E0.0196
G1 X120.392 Y107.355 E0.0197
G1 X120.245 Y107.042 E0.0129
G1 X120.063 Y106.549 E0.0197
G1 X119.931 Y106.042 E0.0196
G1 X119.852 Y105.522 E0.0197
G1 X119.828 Y105.177 E0.0129
G1 X119.837 Y104.651 E0.0197
G1 X119.899 Y104.130 E0.0196
G1 X120.013 Y103.618 E0.0196
G1 X120.178 Y103.121 E0.0196
G1 X120.393 Y102.643 E0.0196
G1 X120.655 Y102.189 E0.0196
G1 X120.962 Y101.764 E0.0196
G1 X121.310 Y101.372 E0.0196
G1 X121.696 Y101.017 E0.0196
G1 X122.116 Y100.703 E0.0196
G1 X122.566 Y100.434 E0.0196
G1 X123.043 Y100.209 E0.0198
G1 X123.199 Y100.149 E0.0063
G1 X123.703 Y99.990 E0.0198
G1 X124.218 Y99.885 E0.0197
G1 X124.562 Y99.844 E0.0129
G1 X125.087 Y99.826 E0.0197
G1 X125.610 Y99.861 E0.0196
G1 X126.127 Y99.950 E0.0196
G1 X126.632 Y100.089 E0.0196
G1 X127.121 Y100.280 E0.0196
G1 X127.587 Y100.519 E0.0196
G1 X128.027 Y100.803 E0.0196
G1 X128.438 Y101.132 E0.0197
G1 X128.689 Y101.371 E0.0129
G1 X129.038 Y101.764 E0.0197
G1 X129.345 Y102.189 E0.0196
G1 X129.607 Y102.643 E0.0196
G1 X129.822 Y103.121 E0.0196
G1 X129.987 Y103.618 E0.0196
G1 X130.101 Y104.130 E0.0196
G1 X130.163 Y104.651 E0.0196
G1 X130.172 Y105.177 E0.0197
G1 X130.148 Y105.522 E0.0129
G1 X130.069 Y106.042 E0.0197
G1 X129.937 Y106.549 E0.0196
G1 X129.755 Y107.042 E0.0197
G1 X129.608 Y107.355 E0.0129
G1 X129.345 Y107.811 E0.0197
G1 X129.038 Y108.236 E0.0196
G1 X128.690 Y108.628 E0.0196
G1 X128.304 Y108.983 E0.0196
G1 X127.884 Y109.296 E0.0196
G1 X127.434 Y109.566 E0.0196
G1 X126.960 Y109.789 E0.0196
G1 X126.466 Y109.963 E0.0196
G1 X125.954 Y110.086 E0.0197
G1 X125.612 Y110.138 E0.0129
G1 X125.287 Y110.160 E0.0122
G1 X125.087 Y110.174 F1920
G1 X124.564 Y110.156 F2400
G1 X124.044 Y110.086 F2400
G1 X123.534 Y109.963 F2400
G1 X123.131 Y109.821 F2400
; inner perimeter
M204 S1200
; outer perimeter
M204 S600
G1 X124.825 Y109.622 F4800
G1 X125.175 Y109.622 E0.0131 F1920
G1 X125.687 Y109.574 E0.0193
G1 X126.031 Y109.509 E0.0131
G1 X126.528 Y109.366 E0.0193
G1 X127.007 Y109.167 E0.0194
G1 X127.461 Y108.916 E0.0194
G1 X127.882 Y108.617 E0.0193
G1 X128.148 Y108.389 E0.0131
G1 X128.504 Y108.019 E0.0193
G1 X128.723 Y107.745 E0.0131
G1 X129.005 Y107.314 E0.0192
G1 X129.168 Y107.005 E0.0131
G1 X129.365 Y106.530 E0.0193
G1 X129.468 Y106.195 E0.0131
G1 X129.574 Y105.689 E0.0193
G1 X129.622 Y105.175 E0.0193
G1 X129.622 Y104.825 E0.0131
G1 X129.574 Y104.313 E0.0193
G1 X129.509 Y103.969 E0.0131
G1 X129.366 Y103.472 E0.0193
G1 X129.168 Y102.995 E0.0193
G1 X129.005 Y102.686 E0.0131
G1 X128.723 Y102.255 E0.0193
G1 X128.504 Y101.981 E0.0131
G1 X128.148 Y101.611 E0.0193
G1 X127.882 Y101.383 E0.0131
G1 X127.461 Y101.084 E0.0193
G1 X127.009 Y100.834 E0.0193
G1 X126.688 Y100.694 E0.0131
G1 X126.197 Y100.532 E0.0193
G1 X125.691 Y100.427 E0.0193
G1 X125.346 Y100.388 E0.0130
G1 X124.998 Y100.375 E0.0130
G1 X124.482 Y100.404 E0.0193
G1 X123.973 Y100.490 E0.0193
G1 X123.635 Y100.581 E0.0131
G1 X123.152 Y100.760 E0.0193
G1 X122.837 Y100.912 E0.0131
G1 X122.394 Y101.178 E0.0193
G1 X121.983 Y101.494 E0.0194
G1 X121.611 Y101.853 E0.0193
G1 X121.384 Y102.116 E0.0130
G1 X121.177 Y102.396 E0.0130
G1 X120.913 Y102.835 E0.0192
G1 X120.832 Y102.995 E0.0067
G1 X120.694 Y103.312 E0.0129
G1 X120.532 Y103.803 E0.0193
G1 X120.426 Y104.311 E0.0194
G1 X120.378 Y104.825 E0.0193
G1 X120.378 Y105.175 E0.0131
G1 X120.426 Y105.687 E0.0193
G1 X120.491 Y106.031 E0.0131
G1 X120.634 Y106.526 E0.0193
G1 X120.762 Y106.852 E0.0131
G1 X120.994 Y107.313 E0.0193
G1 X121.277 Y107.745 E0.0193
G1 X121.496 Y108.019 E0.0131
G1 X121.853 Y108.389 E0.0193
G1 X122.118 Y108.617 E0.0131
G1 X122.539 Y108.916 E0.0193
G1 X122.993 Y109.167 E0.0194
G1 X123.472 Y109.366 E0.0194
G1 X123.969 Y109.509 E0.0193
G1 X124.313 Y109.574 E0.0131
G1 X124.626 Y109.603 E0.0118
G1 X124.825 Y109.622 F1920
G1 X125.175 Y109.622 E-0.2626 F2400
G1 X125.687 Y109.574 E-0.3859
G1 X125.886 Y109.536 E-0.1516
G1 X126.031 Y109.509 F2400
G1 X126.528 Y109.366 F2400
G1 X126.776 Y109.263 F2400
; layer 7, Z = 1.4
; inner perimeter
M204 S1200
; outer perimeter
M204 S600
G1 X126.960 Y109.789 F4800
G1 Z1.400 F1000
G1 E0.8000 F1800
G1 X126.466 Y109.963 E0.0196 F1920
G1 X125.954 Y110.086 E0.0197
G1 X125.612 Y110.138 E0.0129
G1 X125.087 Y110.174 E0.0197
G1 X124.564 Y110.156 E0.0196
G1 X124.044 Y110.086 E0.0196
G1 X123.534 Y109.963 E0.0196
G1 X123.040 Y109.789 E0.0196
G1 X122.566 Y109.566 E0.0196
G1 X122.116 Y109.297 E0.0196
G1 X121.696 Y108.983 E0.0196
G1 X121.310 Y108.628 E0.0196
G1 X120.962 Y108.236 E0.0196
G1 X120.655 Y107.811 E0.0196
G1 X120.392 Y107.355 E0.0197
G1 X120.245 Y107.042 E0.0129
G1 X120.063 Y106.549 E0.0197
G1 X119.931 Y106.042 E0.0196
G1 X119.852 Y105.522 E0.0197
G1 X119.828 Y105.177 E0.0129
G1 X119.837 Y104.651 E0.0197
G1 X119.899 Y104.130 E0.0196
G1 X120.013 Y103.618 E0.0196
G1 X120.178 Y103.121 E0.0196
G1 X120.393 Y102.643 E0.0196
G1 X120.655 Y102.189 E0.0196
G1 X120.962 Y101.764 E0.0196
G1 X121.310 Y101.372 E0.0196
G1 X121.696 Y101.017 E0.0196
G1 X122.116 Y100.703 E0.0196
G1 X122.566 Y100.434 E0.0196
G1 X123.043 Y100.209 E0.0198
G1 X123.199 Y100.149 E0.0063
G1 X123.703 Y99.990 E0.0198
G1 X124.218 Y99.885 E0.0197
G1 X124.562 Y99.844 E0.0129
G1 X125.087 Y99.826 E0.0197
G1 X125.610 Y99.861 E0.0196
G1 X126.127 Y99.950 E0.0196
G1 X126.632 Y100.089 E0.0196
G1 X127.121 Y100.280 E0.0196
G1 X127.587 Y100.519 E0.0196
G1 X128.027 Y100.803 E0.0196
G1 X128.438 Y101.132 E0.0197
G1 X128.689 Y101.371 E0.0129
G1 X129.038 Y101.764 E0.0197
G1 X129.345 Y102.189 E0.0196
G1 X129.607 Y102.643 E0.0196
G1 X129.822 Y103.121 E0.0196
G1 X129.987 Y103.618 E0.0196
G1 X130.101 Y104.130 E0.0196
G1 X130.163 Y104.651 E0.0196
G1 X130.172 Y105.177 E0.0197
G1 X130.148 Y105.522 E0.0129
G1 X130.069 Y106.042 E0.0197
G1 X129.937 Y106.549 E0.0196
G1 X129.755 Y107.042 E0.0197
G1 X129.608 Y107.355 E0.0129
G1 X129.345 Y107.811 E0.0197
G1 X129.038 Y108.236 E0.0196
G1 X128.690 Y108.628 E0.0196
G1 X128.304 Y108.983 E0.0196
G1 X127.884 Y109.296 E0.0196
G1 X127.434 Y109.566 E0.0196
G1 X127.141 Y109.704 E0.0121
G1 X126.960 Y109.789 F1920
G1 X126.466 Y109.963 F2400
G1 X125.954 Y110.086 F2400
G1 X125.612 Y110.138 F2400
G1 X125.087 Y110.174 F2400
G1 X125.010 Y110.171 F2400
; inner perimeter
M204 S1200
; outer perimeter
M204 S600
G1 X127.007 Y109.167 F4800
G1 X127.461 Y108.916 E0.0194 F1920
G1 X127.882 Y108.617 E0.0193
G1 X128.148 Y108.389 E0.0131
G1 X128.504 Y108.019 E0.0193
G1 X128.723 Y107.745 E0.0131
G1 X129.005 Y107.314 E0.0192
G1 X129.168 Y107.005 E0.0131
G1 X129.365 Y106.530 E0.0193
G1 X129.468 Y106.195 E0.0131
G1 X129.574 Y105.689 E0.0193
G1 X129.622 Y105.175 E0.0193
G1 X129.622 Y104.825 E0.0131
G1 X129.574 Y104.313 E0.0193
G1 X129.509 Y103.969 E0.0131
G1 X129.366 Y103.472 E0.0193
G1 X129.168 Y102.995 E0.0193
G1 X129.005 Y102.686 E0.0131
G1 X128.723 Y102.255 E0.0193
G1 X128.504 Y101.981 E0.0131
G1 X128.148 Y101.611 E0.0193
G1 X127.882 Y101.383 E0.0131
G1 X127.461 Y101.084 E0.0193
G1 X127.009 Y100.834 E0.0193
G1 X126.688 Y100.694 E0.0131
G1 X126.197 Y100.532 E0.0193
G1 X125.691 Y100.427 E0.0193
G1 X125.346 Y100.388 E0.0130
G1 X124.998 Y100.375 E0.0130
G1 X124.482 Y100.404 E0.0193
G1 X123.973 Y100.490 E0.0193
G1 X123.635 Y100.581 E0.0131
G1 X123.152 Y100.760 E0.0193
G1 X122.837 Y100.912 E0.0131
G1 X122.394 Y101.178 E0.0193
G1 X121.983 Y101.494 E0.0194
G1 X121.611 Y101.853 E0.0193
G1 X121.384 Y102.116 E0.0130
G1 X121.177 Y102.396 E0.0130
G1 X120.913 Y102.835 E0.0192
G1 X120.832 Y102.995 E0.0067
G1 X120.694 Y103.312 E0.0129
G1 X120.532 Y103.803 E0.0193
G1 X120.426 Y104.311 E0.0194
G1 X120.378 Y104.825 E0.0193
G1 X120.378 Y105.175 E0.0131
G1 X120.426 Y105.687 E0.0193
G1 X120.491 Y106.031 E0.0131
G1 X120.634 Y106.526 E0.0193
G1 X120.762 Y106.852 E0.0131
G1 X120.994 Y107.313 E0.0193
G1 X121.277 Y107.745 E0.0193
G1 X121.496 Y108.019 E0.0131
G1 X121.853 Y108.389 E0.0193
G1 X122.118 Y108.617 E0.0131
G1 X122.539 Y108.916 E0.0193
G1 X122.993 Y109.167 E0.0194
G1 X123.472 Y109.366 E0.0194
G1 X123.969 Y109.509 E0.0193
G1 X124.313 Y109.574 E0.0131
G1 X124.825 Y109.622 E0.0193
G1 X125.175 Y109.622 E0.0131
G1 X125.687 Y109.574 E0.0193
G1 X126.031 Y109.509 E0.0131
G1 X126.528 Y109.366 E0.0193
G1 X126.822 Y109.244 E0.0119
G1 X127.007 Y109.167 F1920
G1 X127.461 Y108.916 E-0.3890 F2400
G1 X127.882 Y108.617 E-0.3874
G1 X127.906 Y108.597 E-0.0235
G1 X128.148 Y108.389 F2400
G1 X128.504 Y108.019 F2400
G1 X128.567 Y107.940 F2400
; layer 8, Z = 1.6
; inner perimeter
M204 S1200
; outer perimeter
M204 S600
G1 X129.038 Y108.236 F4800
G1 Z1.600 F1000
G1 E0.8000 F1800
G1 X128.690 Y108.628 E0.0196 F1920
G1 X128.304 Y108.983 E0.0196
G1 X127.884 Y109.296 E0.0196
G1 X127.434 Y109.566 E0.0196
G1 X126.960 Y109.789 E0.0196
G1 X126.466 Y109.963 E0.0196
G1 X125.954 Y110.086 E0.0197
G1 X125.612 Y110.138 E0.0129
G1 X125.087 Y110.174 E0.0197
G1 X124.564 Y110.156 E0.0196
G1 X124.044 Y110.086 E0.0196
G1 X123.534 Y109.963 E0.0196
G1 X123.040 Y109.789 E0.0196
G1 X122.566 Y109.566 E0.0196
G1 X122.116 Y109.297 E0.0196
G1 X121.696 Y108.983 E0.0196
G1 X121.310 Y108.628 E0.0196
G1 X120.962 Y108.236 E0.0196
G1 X120.655 Y107.811 E0.0196
G1 X120.392 Y107.355 E0.0197
G1 X120.245 Y107.042 E0.0129
G1 X120.063 Y106.549 E0.0197
G1 X119.931 Y106.042 E0.0196
G1 X119.852 Y105.522 E0.0197
G1 X119.828 Y105.177 E0.0129
G1 X119.837 Y104.651 E0.0197
G1 X119.899 Y104.130 E0.0196
G1 X120.013 Y103.618 E0.0196
G1 X120.178 Y103.121 E0.0196
G1 X120.393 Y102.643 E0.0196
G1 X120.655 Y102.189 E0.0196
G1 X120.962 Y101.764 E0.0196
G1 X121.310 Y101.372 E0.0196
G1 X121.696 Y101.017 E0.0196
G1 X122.116 Y100.703 E0.0196
G1 X122.566 Y100.434 E0.0196
G1 X123.043 Y100.209 E0.0198
G1 X123.199 Y100.149 E0.0063
G1 X123.703 Y99.990 E0.0198
G1 X124.218 Y99.885 E0.0197
G1 X124.562 Y99.844 E0.0129
G1 X125.087 Y99.826 E0.0197
G1 X125.610 Y99.861 E0.0196
G1 X126.127 Y99.950 E0.0196
G1 X126.632 Y100.089 E0.0196
G1 X127.121 Y100.280 E0.0196
G1 X127.587 Y100.519 E0.0196
G1 X128.027 Y100.803 E0.0196
G1 X128.438 Y101.132 E0.0197
G1 X128.689 Y101.371 E0.0129
G1 X129.038 Y101.764 E0.0197
G1 X129.345 Y102.189 E0.0196
G1 X129.607 Y102.643 E0.0196
G1 X129.822 Y103.121 E0.0196
G1 X129.987 Y103.618 E0.0196
G1 X130.101 Y104.130 E0.0196
G1 X130.163 Y104.651 E0.0196
G1 X130.172 Y105.177 E0.0197
G1 X130.148 Y105.522 E0.0129
G1 X130.069 Y106.042 E0.0197
G1 X129.937 Y106.549 E0.0196
G1 X129.755 Y107.042 E0.0197
G1 X129.608 Y107.355 E0.0129
G1 X129.345 Y107.811 E0.0197
G1 X129.155 Y108.074 E0.0121
G1 X129.038 Y108.236 F1920
G1 X128.690 Y108.628 F2400
G1 X128.304 Y108.983 F2400
G1 X127.884 Y109.296 F2400
G1 X127.517 Y109.516 F2400
; inner perimeter
M204 S1200
; outer perimeter
M204 S600
G1 X128.504 Y108.019 F4800
G1 X128.723 Y107.745 E0.0131 F1920
G1 X129.005 Y107.314 E0.0192
G1 X129.168 Y107.005 E0.0131
G1 X129.365 Y106.530 E0.0193
G1 X129.468 Y106.195 E0.0131
G1 X129.574 Y105.689 E0.0193
G1 X129.622 Y105.175 E0.0193
G1 X129.622 Y104.825 E0.0131
G1 X129.574 Y104.313 E0.0193
G1 X129.509 Y103.969 E0.0131
G1 X129.366 Y103.472 E0.0193
G1 X129.168 Y102.995 E0.0193
G1 X129.005 Y102.686 E0.0131
G1 X128.723 Y102.255 E0.0193
G1 X128.504 Y101.981 E0.0131
G1 X128.148 Y101.611 E0.0193
G1 X127.882 Y101.383 E0.0131
G1 X127.461 Y101.084 E0.0193
G1 X127.009 Y100.834 E0.0193
G1 X126.688 Y100.694 E0.0131
G1 X126.197 Y100.532 E0.0193
G1 X125.691 Y100.427 E0.0193
G1 X125.346 Y100.388 E0.0130
G1 X124.998 Y100.375 E0.0130
G1 X124.482 Y100.404 E0.0193
G1 X123.973 Y100.490 E0.0193
G1 X123.635 Y100.581 E0.0131
G1 X123.152 Y100.760 E0.0193
G1 X122.837 Y100.912 E0.0131
G1 X122.394 Y101.178 E0.0193
G1 X121.983 Y101.494 E0.0194
G1 X121.611 Y101.853 E0.0193
G1 X121.384 Y102.116 E0.0130
G1 X121.177 Y102.396 E0.0130
G1 X120.913 Y102.835 E0.0192
G1 X120.832 Y102.995 E0.0067
G1 X120.694 Y103.312 E0.0129
G1 X120.532 Y103.803 E0.0193
G1 X120.426 Y104.311 E0.0194
G1 X120.378 Y104.825 E0.0193
G1 X120.378 Y105.175 E0.0131
G1 X120.426 Y105.687 E0.0193
G1 X120.491 Y106.031 E0.0131
G1 X120.634 Y106.526 E0.0193
G1 X120.762 Y106.852 E0.0131
G1 X120.994 Y107.313 E0.0193
G1 X121.277 Y107.745 E0.0193
G1 X121.496 Y108.019 E0.0131
G1 X121.853 Y108.389 E0.0193
G1 X122.118 Y108.617 E0.0131
G1 X122.539 Y108.916 E0.0193
G1 X122.993 Y109.167 E0.0194
G1 X123.472 Y109.366 E0.0194
G1 X123.969 Y109.509 E0.0193
G1 X124.313 Y109.574 E0.0131
G1 X124.825 Y109.622 E0.0193
G1 X125.175 Y109.622 E0.0131
G1 X125.687 Y109.574 E0.0193
G1 X126.031 Y109.509 E0.0131
G1 X126.528 Y109.366 E0.0193
G1 X127.007 Y109.167 E0.0194
G1 X127.461 Y108.916 E0.0194
G1 X127.882 Y108.617 E0.0193
G1 X128.148 Y108.389 E0.0131
G1 X128.366 Y108.163 E0.0118
G1 X128.504 Y108.019 F1920
G1 X128.723 Y107.745 E-0.2626 F2400
G1 X129.005 Y107.314 E-0.3858
G1 X129.099 Y107.136 E-0.1516
G1 X129.168 Y107.005 F2400
G1 X129.365 Y106.530 F2400
G1 X129.445 Y106.271 F2400
; layer 9, Z = 1.8
; inner perimeter
M204 S1200
; outer perimeter
M204 S600
G1 X129.937 Y106.549 F4800
G1 Z1.800 F1000
G1 E0.8000 F1800
G1 X129.755 Y107.042 E0.0197 F1920
G1 X129.608 Y107.355 E0.0129
G1 X129.345 Y107.811 E0.0197
G1 X129.038 Y108.236 E0.0196
G1 X128.690 Y108.628 E0.0196
G1 X128.304 Y108.983 E0.0196
G1 X127.884 Y109.296 E0.0196
G1 X127.434 Y109.566 E0.0196
G1 X126.960 Y109.789 E0.0196
G1 X126.466 Y109.963 E0.0196
G1 X125.954 Y110.086 E0.0197
G1 X125.612 Y110.138 E0.0129
G1 X125.087 Y110.174 E0.0197
G1 X124.564 Y110.156 E0.0196
G1 X124.044 Y110.086 E0.0196
G1 X123.534 Y109.963 E0.0196
G1 X123.040 Y109.789 E0.0196
G1 X122.566 Y109.566 E0.0196
G1 X122.116 Y109.297 E0.0196
G1 X121.696 Y108.983 E0.0196
G1 X121.310 Y108.628 E0.0196
G1 X120.962 Y108.236 E0.0196
G1 X120.655 Y107.811 E0.0196
G1 X120.392 Y107.355 E0.0197
G1 X120.245 Y107.042 E0.0129
G1 X120.063 Y106.549 E0.0197
G1 X119.931 Y106.042 E0.0196
G1 X119.852 Y105.522 E0.0197
G1 X119.828 Y105.177 E0.0129
G1 X119.837 Y104.651 E0.0197
G1 X119.899 Y104.130 E0.0196
G1 X120.013 Y103.618 E0.0196
G1 X120.178 Y103.121 E0.0196
G1 X120.393 Y102.643 E0.0196
G1 X120.655 Y102.189 E0.0196
G1 X120.962 Y101.764 E0.0196
G1 X121.310 Y101.372 E0.0196
G1 X121.696 Y101.017 E0.0196
G1 X122.116 Y100.703 E0.0196
G1 X122.566 Y100.434 E0.0196
G1 X123.043 Y100.209 E0.0198
G1 X123.176 Y100.158 E0.0053
G1 X123.533 Y100.037 E0.0141
G1 X124.044 Y99.914 E0.0197
G1 X124.564 Y99.844 E0.0196
G1 X125.087 Y99.826 E0.0196
G1 X125.610 Y99.861 E0.0196
G1 X126.127 Y99.950 E0.0196
G1 X126.632 Y100.089 E0.0196
G1 X127.121 Y100.280 E0.0196
G1 X127.587 Y100.519 E0.0196
G1 X128.027 Y100.803 E0.0196
G1 X128.438 Y101.132 E0.0197
G1 X128.689 Y101.371 E0.0129
G1 X129.038 Y101.764 E0.0197
G1 X129.345 Y102.189 E0.0196
G1 X129.607 Y102.643 E0.0196
G1 X129.822 Y103.121 E0.0196
G1 X129.987 Y103.618 E0.0196
G1 X130.101 Y104.130 E0.0196
G1 X130.163 Y104.651 E0.0196
G1 X130.172 Y105.177 E0.0197
G1 X130.148 Y105.522 E0.0129
G1 X130.069 Y106.042 E0.0197
G1 X129.988 Y106.356 E0.0121
G1 X129.937 Y106.549 F1920
G1 X129.755 Y107.042 F2400
G1 X129.608 Y107.355 F2400
G1 X129.345 Y107.811 F2400
G1 X129.038 Y108.236 F2400
G1 X128.986 Y108.294 F2400
; inner perimeter
M204 S1200
; outer perimeter
M204 S600
G1 X129.420 Y106.363 F4800
G1 X129.510 Y106.027 E0.0130 F1920
G1 X129.596 Y105.518 E0.0193
G1 X129.625 Y105.000 E0.0194
G1 X129.596 Y104.482 E0.0194
G1 X129.510 Y103.973 E0.0193
G1 X129.419 Y103.635 E0.0131
G1 X129.239 Y103.150 E0.0193
G1 X129.006 Y102.687 E0.0194
G1 X128.723 Y102.255 E0.0193
G1 X128.504 Y101.981 E0.0131
G1 X128.148 Y101.611 E0.0193
G1 X127.884 Y101.384 E0.0130
G1 X127.604 Y101.177 E0.0130
G1 X127.161 Y100.911 E0.0193
G1 X126.692 Y100.695 E0.0193
G1 X126.361 Y100.580 E0.0131
G1 X125.860 Y100.455 E0.0193
G1 X125.348 Y100.388 E0.0193
G1 X124.998 Y100.375 E0.0131
G1 X124.482 Y100.404 E0.0193
G1 X123.973 Y100.490 E0.0193
G1 X123.635 Y100.581 E0.0131
G1 X123.152 Y100.760 E0.0193
G1 X122.837 Y100.912 E0.0131
G1 X122.394 Y101.178 E0.0193
G1 X121.983 Y101.494 E0.0194
G1 X121.611 Y101.853 E0.0193
G1 X121.384 Y102.116 E0.0130
G1 X121.177 Y102.396 E0.0130
G1 X120.913 Y102.835 E0.0192
G1 X120.843 Y102.973 E0.0058
G1 X120.694 Y103.312 E0.0139
G1 X120.533 Y103.801 E0.0193
G1 X120.455 Y104.142 E0.0131
G1 X120.388 Y104.652 E0.0192
G1 X120.375 Y105.002 E0.0131
G1 X120.404 Y105.518 E0.0193
G1 X120.490 Y106.027 E0.0193
G1 X120.581 Y106.365 E0.0131
G1 X120.761 Y106.850 E0.0193
G1 X120.994 Y107.313 E0.0194
G1 X121.277 Y107.745 E0.0193
G1 X121.496 Y108.019 E0.0131
G1 X121.853 Y108.389 E0.0193
G1 X122.118 Y108.617 E0.0131
G1 X122.537 Y108.915 E0.0193
G1 X122.839 Y109.089 E0.0130
G1 X123.152 Y109.240 E0.0130
G1 X123.637 Y109.420 E0.0193
G1 X124.138 Y109.544 E0.0193
G1 X124.484 Y109.596 E0.0131
G1 X125.000 Y109.625 E0.0193
G1 X125.518 Y109.596 E0.0194
G1 X126.027 Y109.510 E0.0193
G1 X126.363 Y109.420 E0.0130
G1 X126.692 Y109.305 E0.0130
G1 X127.159 Y109.090 E0.0193
G1 X127.463 Y108.915 E0.0131
G1 X127.882 Y108.617 E0.0193
G1 X128.148 Y108.389 E0.0131
G1 X128.506 Y108.017 E0.0193
G1 X128.822 Y107.606 E0.0194
G1 X129.089 Y107.161 E0.0194
G1 X129.305 Y106.692 E0.0193
G1 X129.354 Y106.552 E0.0055
G1 X129.420 Y106.363 F1920
G1 X129.510 Y106.027 E-0.2610 F2400
G1 X129.596 Y105.518 E-0.3874
G1 X129.608 Y105.316 E-0.1516
G1 X129.625 Y105.000 F2400
G1 X129.596 Y104.482 F2400
G1 X129.580 Y104.385 F2400
; layer 10, Z = 2
; inner perimeter
M204 S1200
; outer perimeter
M204 S600
G1 X130.101 Y104.130 F4800
G1 Z2.000 F1000
G1 E0.8000 F1800
G1 X130.163 Y104.651 E0.0196 F1920
G1 X130.172 Y105.177 E0.0197
G1 X130.148 Y105.522 E0.0129
G1 X130.069 Y106.042 E0.0197
G1 X129.937 Y106.549 E0.0196
G1 X129.755 Y107.042 E0.0197
G1 X129.608 Y107.355 E0.0129
G1 X129.345 Y107.811 E0.0197
G1 X129.038 Y108.236 E0.0196
G1 X128.690 Y108.628 E0.0196
G1 X128.304 Y108.983 E0.0196
G1 X127.884 Y109.296 E0.0196
G1 X127.434 Y109.566 E0.0196
G1 X126.960 Y109.789 E0.0196
G1 X126.466 Y109.963 E0.0196
G1 X125.954 Y110.086 E0.0197
G1 X125.612 Y110.138 E0.0129
G1 X125.087 Y110.174 E0.0197
G1 X124.564 Y110.156 E0.0196
G1 X124.044 Y110.086 E0.0196
G1 X123.534 Y109.963 E0.0196
G1 X123.040 Y109.789 E0.0196
G1 X122.566 Y109.566 E0.0196
G1 X122.116 Y109.297 E0.0196
G1 X121.696 Y108.983 E0.0196
G1 X121.310 Y108.628 E0.0196
G1 X120.962 Y108.236 E0.0196
G1 X120.655 Y107.811 E0.0196
G1 X120.392 Y107.355 E0.0197
G1 X120.245 Y107.042 E0.0129
G1 X120.063 Y106.549 E0.0197
G1 X119.931 Y106.042 E0.0196
G1 X119.852 Y105.522 E0.0197
G1 X119.828 Y105.177 E0.0129
G1 X119.837 Y104.651 E0.0197
G1 X119.899 Y104.130 E0.0196
G1 X120.013 Y103.618 E0.0196
G1 X120.178 Y103.121 E0.0196
G1 X120.393 Y102.643 E0.0196
G1 X120.655 Y102.189 E0.0196
G1 X120.962 Y101.764 E0.0196
G1 X121.310 Y101.372 E0.0196
G1 X121.696 Y101.017 E0.0196
G1 X122.116 Y100.703 E0.0196
G1 X122.566 Y100.434 E0.0196
G1 X123.043 Y100.209 E0.0198
G1 X123.192 Y100.151 E0.0060
G1 X123.533 Y100.038 E0.0134
G1 X124.044 Y99.914 E0.0197
G1 X124.564 Y99.844 E0.0196
G1 X125.087 Y99.826 E0.0196
G1 X125.610 Y99.861 E0.0196
G1 X126.127 Y99.950 E0.0196
G1 X126.632 Y100.089 E0.0196
G1 X127.121 Y100.280 E0.0196
G1 X127.587 Y100.519 E0.0196
G1 X128.027 Y100.803 E0.0196
G1 X128.438 Y101.132 E0.0197
G1 X128.689 Y101.371 E0.0129
G1 X129.038 Y101.764 E0.0197
G1 X129.345 Y102.189 E0.0196
G1 X129.607 Y102.643 E0.0196
G1 X129.822 Y103.121 E0.0196
G1 X129.987 Y103.618 E0.0196
G1 X130.058 Y103.935 E0.0121
G1 X130.101 Y104.130 F1920
G1 X130.163 Y104.651 F2400
G1 X130.172 Y105.177 F2400
G1 X130.148 Y105.522 F2400
G1 X130.069 Y106.042 F2400
G1 X130.049 Y106.117 F2400
; inner perimeter
M204 S1200
; outer perimeter
M204 S600
G1 X129.596 Y104.482 F4800
G1 X129.510 Y103.973 E0.0193 F1920
G1 X129.419 Y103.635 E0.0131
G1 X129.239 Y103.150 E0.0193
G1 X129.006 Y102.687 E0.0194
G1 X128.723 Y102.255 E0.0193
G1 X128.504 Y101.981 E0.0131
G1 X128.148 Y101.611 E0.0193
G1 X127.884 Y101.384 E0.0130
G1 X127.604 Y101.177 E0.0130
G1 X127.161 Y100.911 E0.0193
G1 X126.692 Y100.695 E0.0193
G1 X126.361 Y100.580 E0.0131
G1 X125.860 Y100.455 E0.0193
G1 X125.348 Y100.388 E0.0193
G1 X124.998 Y100.375 E0.0131
G1 X124.482 Y100.404 E0.0193
G1 X123.973 Y100.490 E0.0193
G1 X123.635 Y100.581 E0.0131
G1 X123.152 Y100.760 E0.0193
G1 X122.837 Y100.912 E0.0131
G1 X122.394 Y101.178 E0.0193
G1 X121.983 Y101.494 E0.0194
G1 X121.611 Y101.853 E0.0193
G1 X121.384 Y102.116 E0.0130
G1 X121.177 Y102.396 E0.0130
G1 X120.913 Y102.835 E0.0192
G1 X120.836 Y102.988 E0.0064
G1 X120.694 Y103.312 E0.0132
G1 X120.533 Y103.801 E0.0193
G1 X120.455 Y104.142 E0.0131
G1 X120.388 Y104.652 E0.0192
G1 X120.375 Y105.002 E0.0131
G1 X120.404 Y105.518 E0.0193
G1 X120.490 Y106.027 E0.0193
G1 X120.581 Y106.365 E0.0131
G1 X120.761 Y106.850 E0.0193
G1 X120.994 Y107.313 E0.0194
G1 X121.277 Y107.745 E0.0193
G1 X121.496 Y108.019 E0.0131
G1 X121.853 Y108.389 E0.0193
G1 X122.118 Y108.617 E0.0131
G1 X122.537 Y108.915 E0.0193
G1 X122.839 Y109.089 E0.0130
G1 X123.152 Y109.240 E0.0130
G1 X123.637 Y109.420 E0.0193
G1 X124.138 Y109.544 E0.0193
G1 X124.484 Y109.596 E0.0131
G1 X125.000 Y109.625 E0.0193
G1 X125.518 Y109.596 E0.0194
G1 X126.027 Y109.510 E0.0193
G1 X126.363 Y109.420 E0.0130
G1 X126.692 Y109.305 E0.0130
G1 X127.159 Y109.090 E0.0193
G1 X127.463 Y108.915 E0.0131
G1 X127.882 Y108.617 E0.0193
G1 X128.148 Y108.389 E0.0131
G1 X128.506 Y108.017 E0.0193
G1 X128.822 Y107.606 E0.0194
G1 X129.089 Y107.161 E0.0194
G1 X129.305 Y106.692 E0.0193
G1 X129.420 Y106.363 E0.0130
G1 X129.510 Y106.027 E0.0130
G1 X129.596 Y105.518 E0.0193
G1 X129.625 Y105.000 E0.0194
G1 X129.607 Y104.682 E0.0119
G1 X129.596 Y104.482 F1920
G1 E-0.8000 F1800
G1 X129.510 Y103.973 F2400
G1 X129.419 Y103.635 F2400
G1 X129.239 Y103.150 F2400
G1 X129.006 Y102.687 F2400
G1 X128.952 Y102.605 F2400
; layer end
M104 S0 ; turn off temperature
M140 S0 ; turn off heatbed
M107 ; turn off fan
G1 X0 Y200; home X axis
M84 ; disable motors
; Build Summary
;   Build time: 0 hours 0 minutes
;   Filament length: 31.7 mm (0.03 m)
;   Plastic volume: 76.15 mm^3 (0.08 cc)
;   Plastic weight: 0.10 g (0.00 lb)
;   Material cost: 0.00
